\relax 
\providecommand\hyper@newdestlabel[2]{}
\providecommand\BKM@entry[2]{}
\providecommand\HyperFirstAtBeginDocument{\AtBeginDocument}
\HyperFirstAtBeginDocument{\ifx\hyper@anchor\@undefined
\global\let\oldcontentsline\contentsline
\gdef\contentsline#1#2#3#4{\oldcontentsline{#1}{#2}{#3}}
\global\let\oldnewlabel\newlabel
\gdef\newlabel#1#2{\newlabelxx{#1}#2}
\gdef\newlabelxx#1#2#3#4#5#6{\oldnewlabel{#1}{{#2}{#3}}}
\AtEndDocument{\ifx\hyper@anchor\@undefined
\let\contentsline\oldcontentsline
\let\newlabel\oldnewlabel
\fi}
\fi}
\global\let\hyper@last\relax 
\gdef\HyperFirstAtBeginDocument#1{#1}
\providecommand\HyField@AuxAddToFields[1]{}
\providecommand\HyField@AuxAddToCoFields[2]{}
\bibstyle{WileyNJD-AMA}
\BKM@entry{id=1,open,dest={446F632D5374617274},srcline={89}}{4461746120616363657373207265647563696E67204F75742D6F662D4750552D4D656D6F72792052616E646F6D697A656420535644}
\BKM@entry{id=2,open,dest={446F632D5374617274},srcline={89}}{4162737472616374}
\BKM@entry{id=3,open,dest={73656374696F6E2E31},srcline={91}}{496E74726F64756374696F6E}
\citation{Golub:2012}
\citation{zhang2010discriminative,candes2011robust,liu2011robust}
\citation{troyanskaya2001missing,wall2003singular}
\citation{frankenberg2014prospects,hoecker1996svd}
\citation{golub1965calculating,larsen1998lanczos,frieze2004fast}
\citation{pearson1901liii,hotelling1933analysis}
\citation{andrews1976singular}
\citation{turk1991face}
\citation{martinsson2006randomized,liberty2007randomized,halko2011finding}
\citation{gates2018accelerating}
\citation{gates2018accelerating,dongarra2018singular}
\citation{irony2004communication,ballard2011minimizing,jablin2011automatic}
\citation{demmel2013communication}
\citation{hoemmen2010communication}
\citation{demmel2012communication}
\citation{haidar2017out,dongarra2018singular}
\providecommand \oddpage@label [2]{}
\@writefile{toc}{\contentsline {chapter}{Data access reducing Out-of-GPU-Memory Randomized SVD}{1}{Doc-Start}}
\Newlabel{1}{1}
\Newlabel{2}{2}
\@writefile{toc}{\contentsline {section}{Abstract}{1}{Doc-Start}}
\@writefile{toc}{\contentsline {section}{\numberline {1}Introduction}{1}{section.1}}
\newlabel{sec:intro}{{1}{1}{Introduction}{section.1}{}}
\citation{drineas2006fast,drineas2007randomized}
\citation{hoemmen2010communication,anderson2011communication}
\citation{demmel2012communication}
\citation{rokhlin2009randomized,halko2011finding}
\citation{yu2017single,tropp2017practical}
\citation{halko2011finding,yu2017single,tropp2017practical}
\citation{yu2017single,tropp2017practical}
\citation{henzinger1998computing}
\citation{yu2017single}
\citation{oh2015fast}
\citation{martinsson2006randomized,martinsson2010normalized,halko2011finding}
\citation{yamazakirandom,voronin2015rsvdpack}
\citation{}
\citation{}
\BKM@entry{id=4,open,dest={73656374696F6E2E32},srcline={95}}{52656C6174656420576F726B73}
\citation{frieze2004fast,martinsson2006randomized,sarlos2006improved,liberty2007randomized,rokhlin2009randomized,mahoney2011randomized,halko2011finding}
\BKM@entry{id=5,open,dest={73756273656374696F6E2E322E31},srcline={4}}{52616E646F6D697A656420416C676F726974686D73}
\@writefile{toc}{\contentsline {section}{\numberline {2}Related Works}{2}{section.2}}
\newlabel{sec:related}{{2}{2}{Related Works}{section.2}{}}
\@writefile{toc}{\contentsline {subsection}{\numberline {2.1}Randomized Algorithms}{2}{subsection.2.1}}
\citation{drineas2006fast}
\citation{holodnak2015randomized}
\citation{xu2016sub}
\citation{robbins1985stochastic}
\citation{duchi2011adaptive,kingma2014adam}
\citation{byrd2011use,roosta2016sub,pilanci2017newton}
\citation{kylasa2018gpu}
\BKM@entry{id=6,open,dest={73756273656374696F6E2E322E32},srcline={52}}{486967682D706572666F726D616E636520436F6D707574696E6720666F722052616E646F6D697A656420416C676F726974686D73}
\citation{ji2014gpu}
\citation{mary2015performance}
\citation{voronin2015rsvdpack}
\citation{volkov2008benchmarking,agullo2009numerical}
\citation{d2012parallel,yamazaki2012one,yamazaki2016non}
\citation{wang2016blasx}
\BKM@entry{id=7,open,dest={73656374696F6E2E33},srcline={99}}{5072656C696D696E6172793A205253564420616C676F726974686D20616E6420616E616C79736973}
\BKM@entry{id=8,open,dest={73756273656374696F6E2E332E31},srcline={3}}{5253564420416C676F726974686D}
\citation{halko2011finding}
\citation{frieze2004fast,martinsson2006randomized,sarlos2006improved,liberty2007randomized,rokhlin2009randomized}
\citation{halko2011finding,martinsson2006randomized,liberty2007randomized,martinsson2010normalized}
\citation{Golub:2012}
\@writefile{toc}{\contentsline {subsection}{\numberline {2.2}High-performance Computing for Randomized Algorithms}{3}{subsection.2.2}}
\@writefile{toc}{\contentsline {section}{\numberline {3}Preliminary: RSVD algorithm and analysis}{3}{section.3}}
\newlabel{sec:algo}{{3}{3}{Preliminary: RSVD algorithm and analysis}{section.3}{}}
\@writefile{toc}{\contentsline {subsection}{\numberline {3.1}RSVD Algorithm}{3}{subsection.3.1}}
\citation{Dua:2017}
\BKM@entry{id=9,open,dest={73756273656374696F6E2E332E32},srcline={79}}{506572666F726D616E636520416E616C79736973}
\citation{williams2009roofline}
\citation{williams2007optimization}
\@writefile{loa}{\contentsline {algocf}{\numberline {1}{\ignorespaces Randomized SVD: $orth(\mathbf  {P})$ orthogonalizes the column vectors $\mathbf  {P}$, while $qr(\mathbf  {P})$ and $svd(\mathbf  {B})$ return the QR factorization and SVD of matrices $\mathbf  {P}$ and $\mathbf  {B}$, respectively. We use $\mathbf  {\mathaccent "019B\relax {\Sigma }}(1:k,1:k)$ and $\mathbf  {\mathaccent "019B\relax {U}}\left (:, 1:k\right )$ to denote the leading $k \times k$ submatrix of $\mathbf  {\mathaccent "019B\relax {\Sigma }}$ and the submatrix consiting of the first $k$ columns of $\mathbf  {\mathaccent "019B\relax {U}}$, respectively. \relax }}{4}{algocf.1}}
\providecommand*\caption@xref[2]{\@setref\relax\@undefined{#1}}
\newlabel{alg:rsvd}{{1}{4}{RSVD Algorithm}{algocf.1}{}}
\@writefile{toc}{\contentsline {subsection}{\numberline {3.2}Performance Analysis}{4}{subsection.3.2}}
\newlabel{eq:roofline}{{1}{4}{Performance Analysis}{equation.3.1}{}}
\BKM@entry{id=10,open,dest={73656374696F6E2E34},srcline={103}}{50726F706F736564204D6574686F64}
\@writefile{lof}{\contentsline {figure}{\numberline {1}{\ignorespaces Performance upper-bound of out-of-GPU-memory GEMM: We use the parameters of a typical workstation platform with PCIe 3.0 link to the GPU. The peak bandwidth $B$ is set as $13$ GB/s, $7$ Tflop/s as the theoretical peak performance $P$ of Nvidia Volta GPU. Block size $b$ for (c) and (b) is set to $1024$, which is the default setup of cuBLAS-XT. \relax }}{5}{figure.caption.2}}
\newlabel{fig:roofline}{{1}{5}{Performance upper-bound of out-of-GPU-memory GEMM: We use the parameters of a typical workstation platform with PCIe 3.0 link to the GPU. The peak bandwidth $B$ is set as $13$ GB/s, $7$ Tflop/s as the theoretical peak performance $P$ of Nvidia Volta GPU. Block size $b$ for (c) and (b) is set to $1024$, which is the default setup of cuBLAS-XT. \relax }{figure.caption.2}{}}
\newlabel{eq:ideal}{{2}{5}{Performance Analysis}{equation.3.2}{}}
\newlabel{eq:2Dgemm}{{3}{5}{Performance Analysis}{equation.3.3}{}}
\@writefile{toc}{\contentsline {section}{\numberline {4}Proposed Method}{5}{section.4}}
\newlabel{sec:proposed}{{4}{5}{Proposed Method}{section.4}{}}
\BKM@entry{id=11,open,dest={73756273656374696F6E2E342E31},srcline={27}}{5265647563696E67206F75742D6F662D636F7265206461746120616363657373206261736564206F6E2031442047454D4D}
\BKM@entry{id=12,open,dest={73756273656374696F6E2E342E32},srcline={99}}{506F77657220497465726174696F6E207769746820466F726D696E67204772616D204D6174726978}
\citation{martinsson2010normalized,halko2011finding}
\@writefile{lot}{\contentsline {table}{\numberline {1}{\ignorespaces  Computational and communication costs of different implementations: \#flops is the number of required flops in double precision while \#pass is the number of times $\mathbf  {A}$ is accessed.\relax }}{6}{table.caption.3}}
\newlabel{tb:flops}{{1}{6}{Computational and communication costs of different implementations: \#flops is the number of required flops in double precision while \#pass is the number of times $\mathbf {A}$ is accessed.\relax }{table.caption.3}{}}
\@writefile{loa}{\contentsline {algocf}{\numberline {2}{\ignorespaces FIFO buffer for power iteration\relax }}{6}{algocf.2}}
\newlabel{alg:fifo}{{2}{6}{Reducing out-of-core data access based on 1D GEMM}{algocf.2}{}}
\@writefile{toc}{\contentsline {subsection}{\numberline {4.1}Reducing out-of-core data access based on 1D GEMM}{6}{subsection.4.1}}
\@writefile{toc}{\contentsline {subsection}{\numberline {4.2}Power Iteration with Forming Gram Matrix}{6}{subsection.4.2}}
\BKM@entry{id=13,open,dest={73756273656374696F6E2E342E33},srcline={126}}{496D706C656D656E746174696F6E204672616D65776F726B20616E6420416E616C79736973}
\@writefile{loa}{\contentsline {algocf}{\numberline {3}{\ignorespaces Power method with single-pass per iteration\relax }}{7}{algocf.3}}
\newlabel{alg:single}{{3}{7}{Reducing out-of-core data access based on 1D GEMM}{algocf.3}{}}
\@writefile{loa}{\contentsline {algocf}{\numberline {4}{\ignorespaces Power method with explicit Gram matrix\relax }}{7}{algocf.4}}
\newlabel{alg:gram}{{4}{7}{Power Iteration with Forming Gram Matrix}{algocf.4}{}}
\@writefile{lof}{\contentsline {figure}{\numberline {2}{\ignorespaces 1D block row cyclic partition of $\mathbf  {A}$ for out-of-GPU-memory tall-skinny GEMM. (a) shows the $m>\tmspace  -\thinmuskip {.1667em}\tmspace  -\thinmuskip {.1667em}>k, m>\tmspace  -\thinmuskip {.1667em}\tmspace  -\thinmuskip {.1667em}>n$ situation, where $Q$ is scattered among multiple GPU. (b) shows the $k>\tmspace  -\thinmuskip {.1667em}\tmspace  -\thinmuskip {.1667em}>m, k>\tmspace  -\thinmuskip {.1667em}\tmspace  -\thinmuskip {.1667em}>n$ situation, where $Q$ is calculated by reduction.\relax }}{7}{figure.caption.7}}
\newlabel{fig:1DGEMM}{{2}{7}{1D block row cyclic partition of $\mathbf {A}$ for out-of-GPU-memory tall-skinny GEMM. (a) shows the $m>\!\!>k, m>\!\!>n$ situation, where $Q$ is scattered among multiple GPU. (b) shows the $k>\!\!>m, k>\!\!>n$ situation, where $Q$ is calculated by reduction.\relax }{figure.caption.7}{}}
\@writefile{toc}{\contentsline {subsection}{\numberline {4.3}Implementation Framework and Analysis}{7}{subsection.4.3}}
\citation{Stath:2002}
\BKM@entry{id=14,open,dest={73656374696F6E2E35},srcline={107}}{4578706572696D656E74616C20726573756C7473}
\BKM@entry{id=15,open,dest={73756273656374696F6E2E352E31},srcline={5}}{426173656C696E6520496D706C656D656E746174696F6E}
\BKM@entry{id=16,open,dest={73756273656374696F6E2E352E32},srcline={63}}{506572666F726D616E6365206F662050726F706F736564204D6574686F6473}
\@writefile{loa}{\contentsline {algocf}{\numberline {5}{\ignorespaces Cholesky QR Factorization: \relax \fontsize  {7.5}{9}\selectfont  \abovedisplayskip 5\p@ plus2\p@ minus4\p@ \abovedisplayshortskip \z@ plus\p@ \belowdisplayshortskip 3\p@ plus\p@ minus2\p@ \def \leftmargin \leftmargini \parsep 4\p@ plus2\p@ minus\p@ \topsep 8\p@ plus2\p@ minus4\p@ \itemsep 4\p@ plus2\p@ minus\p@ {\leftmargin \leftmargini \topsep 3\p@ plus\p@ minus\p@ \parsep 2\p@ plus\p@ minus\p@ \itemsep \parsep }\belowdisplayskip \abovedisplayskip $\mathbf  {R} := chol(\mathbf  {B})$ returns the Cholesky factorization of $\mathbf  {B}$\relax }}{8}{algocf.5}}
\newlabel{alg:cholqr}{{5}{8}{Baseline Implementation}{algocf.5}{}}
\@writefile{toc}{\contentsline {section}{\numberline {5}Experimental results}{8}{section.5}}
\newlabel{sec:test}{{5}{8}{Experimental results}{section.5}{}}
\@writefile{toc}{\contentsline {subsection}{\numberline {5.1}Baseline Implementation}{8}{subsection.5.1}}
\BKM@entry{id=17,open,dest={73756273656374696F6E2E352E33},srcline={5}}{506572666F726D616E63652054756E696E6720616E6420436F6D70617269736F6E206F66204F75742D6F662D4750552D6D656D6F72792047454D4D}
\@writefile{lof}{\contentsline {figure}{\numberline {3}{\ignorespaces (a) Performance comparison of CPU, ``cuBLAS-XT'' and ``Baseline'' implementations of RSVD The parameters are set to $n = 5000,\ \ell =500,\ q=4$. The ``Baseline" and ``cuBLAS-XT'' are almost overlapped in (a).\relax }}{9}{figure.caption.9}}
\newlabel{fig:naive}{{3}{9}{(a) Performance comparison of CPU, ``cuBLAS-XT'' and ``Baseline'' implementations of RSVD The parameters are set to $n = 5000,\ \ell =500,\ q=4$. The ``Baseline" and ``cuBLAS-XT'' are almost overlapped in (a).\relax }{figure.caption.9}{}}
\@writefile{lof}{\contentsline {figure}{\numberline {4}{\ignorespaces RSVD performance with different implementations, and increasing number of rows in $\mathbf  {A}$ ($\ell = \frac  {n}{10}$ and $p=4$). \relax }}{9}{figure.caption.10}}
\newlabel{fig:gram}{{4}{9}{RSVD performance with different implementations, and increasing number of rows in $\mathbf {A}$ ($\ell = \frac {n}{10}$ and $p=4$). \relax }{figure.caption.10}{}}
\@writefile{toc}{\contentsline {subsection}{\numberline {5.2}Performance of Proposed Methods}{9}{subsection.5.2}}
\@writefile{lof}{\contentsline {figure}{\numberline {5}{\ignorespaces ``Single'' on ``Gram'' scheme performance with increasing number of power iterations \unhbox \voidb@x \hbox {($\ell = \frac  {n}{10}$)}.\relax }}{10}{figure.caption.11}}
\newlabel{fig:power}{{5}{10}{``Single'' on ``Gram'' scheme performance with increasing number of power iterations \mbox {($\ell = \frac {n}{10}$)}.\relax }{figure.caption.11}{}}
\@writefile{lof}{\contentsline {figure}{\numberline {6}{\ignorespaces Time breakdown on one GPU with $\ell =n/10$ and $p=4$. GEMM includes the time of CPU-GPU data transfer and GEMM operations. Misc. is composed of initialization and random matrix generation.\relax }}{10}{figure.caption.12}}
\newlabel{fig:breakdown}{{6}{10}{Time breakdown on one GPU with $\ell =n/10$ and $p=4$. GEMM includes the time of CPU-GPU data transfer and GEMM operations. Misc. is composed of initialization and random matrix generation.\relax }{figure.caption.12}{}}
\@writefile{lof}{\contentsline {figure}{\numberline {7}{\ignorespaces Effects of block size on the performance of out-of-GPU-memory GEMM. The parameters are set as: (a) $n = 1000, l = 1000$; (b) $n = 5000, l = 5000$. Note that the upper-bound is curved due to the x-axis is the height of $\mathbf  {A}$ instead of operational intensity in the original roofline model.\relax }}{10}{figure.caption.13}}
\newlabel{fig:tune}{{7}{10}{Effects of block size on the performance of out-of-GPU-memory GEMM. The parameters are set as: (a) $n = 1000, l = 1000$; (b) $n = 5000, l = 5000$. Note that the upper-bound is curved due to the x-axis is the height of $\mathbf {A}$ instead of operational intensity in the original roofline model.\relax }{figure.caption.13}{}}
\@writefile{toc}{\contentsline {subsection}{\numberline {5.3}Performance Tuning and Comparison of Out-of-GPU-memory GEMM}{10}{subsection.5.3}}
\newlabel{sec:GEMM_EXP}{{5.3}{10}{Performance Tuning and Comparison of Out-of-GPU-memory GEMM}{subsection.5.3}{}}
\@writefile{lof}{\contentsline {figure}{\numberline {8}{\ignorespaces Out-of-GPU-memory DGEMM performance with one GPU.\relax }}{11}{figure.caption.14}}
\newlabel{fig:singleGEMM}{{8}{11}{Out-of-GPU-memory DGEMM performance with one GPU.\relax }{figure.caption.14}{}}
\@writefile{lof}{\contentsline {figure}{\numberline {9}{\ignorespaces Out-of-GPU-memory GEMM performamce with two GPUs.\relax }}{11}{figure.caption.15}}
\newlabel{fig:twoGEMM}{{9}{11}{Out-of-GPU-memory GEMM performamce with two GPUs.\relax }{figure.caption.15}{}}
\BKM@entry{id=18,open,dest={73756273656374696F6E2E352E34},srcline={83}}{4E756D65726963616C205374756469657320776974682053796E74686574696320616E64205265616C2044617461}
\citation{phillips2000feret}
\BKM@entry{id=19,open,dest={73656374696F6E2E36},srcline={111}}{4170706C69636174696F6E3A2052504341}
\citation{candes2011robust}
\citation{candes2011robust}
\citation{yuan2009sparse,lin2009fast,lin2010augmented}
\citation{oh2015fast}
\BKM@entry{id=20,open,dest={73656374696F6E2E37},srcline={114}}{436F6E636C7573696F6E}
\@writefile{lot}{\contentsline {table}{\numberline {2}{\ignorespaces Approximation error $\norm  {\mathbf  {A} - \mathaccentV {hat}182{\mathbf  {A}} }_F / \norm  { \mathbf  {A}}_F$.\relax }}{12}{table.caption.16}}
\newlabel{tb:err}{{2}{12}{Approximation error $\norm {\mathbf {A} - \hat {\mathbf {A}} }_F / \norm { \mathbf {A}}_F$.\relax }{table.caption.16}{}}
\@writefile{toc}{\contentsline {subsection}{\numberline {5.4}Numerical Studies with Synthetic and Real Data}{12}{subsection.5.4}}
\newlabel{sec:accuracy}{{5.4}{12}{Numerical Studies with Synthetic and Real Data}{subsection.5.4}{}}
\@writefile{toc}{\contentsline {section}{\numberline {6}Application: RPCA}{12}{section.6}}
\newlabel{sec:app}{{6}{12}{Application: RPCA}{section.6}{}}
\newlabel{eqn:06}{{4}{12}{Application: RPCA}{equation.6.4}{}}
\BKM@entry{id=21,open,dest={73656374696F6E2E37},srcline={123}}{41636B6E6F776C6564676D656E7473}
\bibdata{rsvd}
\@writefile{loa}{\contentsline {algocf}{\numberline {6}{\ignorespaces RPCA by RSVD\relax }}{13}{algocf.6}}
\newlabel{alg:rpca}{{6}{13}{Application: RPCA}{algocf.6}{}}
\@writefile{lof}{\contentsline {figure}{\numberline {10}{\ignorespaces Sample outputs of RPCA.\relax }}{13}{figure.caption.18}}
\newlabel{fig:background}{{10}{13}{Sample outputs of RPCA.\relax }{figure.caption.18}{}}
\@writefile{lot}{\contentsline {table}{\numberline {3}{\ignorespaces Comparison of RPCA by RSVD on CPU and GPU. All experiments are conducted in double precision. The hardware setup is the same in Sec.\nobreakspace  {}\ref  {sec:test}. The sampling parameters for RSVD are set as: $k=o=200$, and $q=4$. The parameters in Algorithm \ref  {alg:rpca} are set as : $tol=10^{-6}, \rho =1.5$ and $\mu = 1.5/||\mathbf  {M}||_{\infty }$.\relax }}{13}{table.caption.19}}
\newlabel{tb:rpca}{{3}{13}{Comparison of RPCA by RSVD on CPU and GPU. All experiments are conducted in double precision. The hardware setup is the same in \sref {sec:test}. The sampling parameters for RSVD are set as: $k=o=200$, and $q=4$. The parameters in Algorithm \ref {alg:rpca} are set as : $tol=10^{-6}, \rho =1.5$ and $\mu = 1.5/||\mathbf {M}||_{\infty }$.\relax }{table.caption.19}{}}
\@writefile{toc}{\contentsline {section}{\numberline {7}Conclusion}{13}{section.7}}
\newlabel{sec:Conclu}{{7}{13}{Conclusion}{section.7}{}}
\BKM@entry{id=22,open,dest={73656374696F6E2E37},srcline={1}}{5265666572656E636573}
\bibcite{Golub:2012}{{1}{}{{}}{{}}}
\bibcite{zhang2010discriminative}{{2}{}{{}}{{}}}
\bibcite{candes2011robust}{{3}{}{{}}{{}}}
\bibcite{liu2011robust}{{4}{}{{}}{{}}}
\bibcite{troyanskaya2001missing}{{5}{}{{}}{{}}}
\bibcite{wall2003singular}{{6}{}{{}}{{}}}
\bibcite{frankenberg2014prospects}{{7}{}{{}}{{}}}
\bibcite{hoecker1996svd}{{8}{}{{}}{{}}}
\bibcite{golub1965calculating}{{9}{}{{}}{{}}}
\bibcite{larsen1998lanczos}{{10}{}{{}}{{}}}
\bibcite{frieze2004fast}{{11}{}{{}}{{}}}
\bibcite{pearson1901liii}{{12}{}{{}}{{}}}
\bibcite{hotelling1933analysis}{{13}{}{{}}{{}}}
\bibcite{andrews1976singular}{{14}{}{{}}{{}}}
\bibcite{turk1991face}{{15}{}{{}}{{}}}
\bibcite{martinsson2006randomized}{{16}{}{{}}{{}}}
\bibcite{liberty2007randomized}{{17}{}{{}}{{}}}
\bibcite{halko2011finding}{{18}{}{{}}{{}}}
\bibcite{gates2018accelerating}{{19}{}{{}}{{}}}
\bibcite{dongarra2018singular}{{20}{}{{}}{{}}}
\@writefile{toc}{\contentsline {section}{Acknowledgments}{14}{section.7}}
\@writefile{toc}{\contentsline {section}{References\begingroup \let \let \let \let \@unexpandable@protect \xdef {\MakeUppercase  {References}}{\MakeUppercase  {References}}{{\MakeUppercase  {References}}{\MakeUppercase  {References}}}\@temptokena {{\MakeUppercase  {References}}{\MakeUppercase  {References}}}\mark {\thm@preskip 6.0pt\thm@postskip 6.0pt\relax \thm@headfont {\bfseries  }\thm@headpunct {.}}\endgroup }{14}{section.7}}
\bibcite{irony2004communication}{{21}{}{{}}{{}}}
\bibcite{ballard2011minimizing}{{22}{}{{}}{{}}}
\bibcite{jablin2011automatic}{{23}{}{{}}{{}}}
\bibcite{demmel2013communication}{{24}{}{{}}{{}}}
\bibcite{hoemmen2010communication}{{25}{}{{}}{{}}}
\bibcite{demmel2012communication}{{26}{}{{}}{{}}}
\bibcite{haidar2017out}{{27}{}{{}}{{}}}
\bibcite{drineas2006fast}{{28}{}{{}}{{}}}
\bibcite{drineas2007randomized}{{29}{}{{}}{{}}}
\bibcite{anderson2011communication}{{30}{}{{}}{{}}}
\bibcite{rokhlin2009randomized}{{31}{}{{}}{{}}}
\bibcite{yu2017single}{{32}{}{{}}{{}}}
\bibcite{tropp2017practical}{{33}{}{{}}{{}}}
\bibcite{henzinger1998computing}{{34}{}{{}}{{}}}
\bibcite{oh2015fast}{{35}{}{{}}{{}}}
\bibcite{martinsson2010normalized}{{36}{}{{}}{{}}}
\bibcite{yamazakirandom}{{37}{}{{}}{{}}}
\bibcite{voronin2015rsvdpack}{{38}{}{{}}{{}}}
\bibcite{sarlos2006improved}{{39}{}{{}}{{}}}
\bibcite{mahoney2011randomized}{{40}{}{{}}{{}}}
\bibcite{holodnak2015randomized}{{41}{}{{}}{{}}}
\bibcite{xu2016sub}{{42}{}{{}}{{}}}
\bibcite{robbins1985stochastic}{{43}{}{{}}{{}}}
\bibcite{duchi2011adaptive}{{44}{}{{}}{{}}}
\bibcite{kingma2014adam}{{45}{}{{}}{{}}}
\bibcite{byrd2011use}{{46}{}{{}}{{}}}
\bibcite{roosta2016sub}{{47}{}{{}}{{}}}
\bibcite{pilanci2017newton}{{48}{}{{}}{{}}}
\bibcite{kylasa2018gpu}{{49}{}{{}}{{}}}
\bibcite{ji2014gpu}{{50}{}{{}}{{}}}
\bibcite{mary2015performance}{{51}{}{{}}{{}}}
\bibcite{volkov2008benchmarking}{{52}{}{{}}{{}}}
\bibcite{agullo2009numerical}{{53}{}{{}}{{}}}
\bibcite{d2012parallel}{{54}{}{{}}{{}}}
\bibcite{yamazaki2012one}{{55}{}{{}}{{}}}
\bibcite{yamazaki2016non}{{56}{}{{}}{{}}}
\bibcite{wang2016blasx}{{57}{}{{}}{{}}}
\bibcite{Dua:2017}{{58}{}{{}}{{}}}
\bibcite{williams2009roofline}{{59}{}{{}}{{}}}
\bibcite{williams2007optimization}{{60}{}{{}}{{}}}
\bibcite{Stath:2002}{{61}{}{{}}{{}}}
\bibcite{phillips2000feret}{{62}{}{{}}{{}}}
\bibcite{yuan2009sparse}{{63}{}{{}}{{}}}
\bibcite{lin2009fast}{{64}{}{{}}{{}}}
\bibcite{lin2010augmented}{{65}{}{{}}{{}}}
\FirstPg{0}\LastPg{16}
\providecommand\NAT@force@numbers{}\NAT@force@numbers
